BANA 7052: Lecture 05
…
]

---

# Loading the data

```r
url <- "https://bgreenwell.github.io/uc-bana7052/data/fruitfly.csv"
fruitfly <- read.csv(url)
tibble::as_tibble(fruitfly)
```

```
## # A tibble: 50 x 3
##    lifespan group   thorax
##       <int> <fct>    <dbl>
##  1       46 control   0.64
##  2       42 control   0.68
##  3       65 control   0.72
##  4       46 control   0.76
##  5       58 control   0.76
##  6       42 control   0.8 
##  7       48 control   0.8 
##  8       58 control   0.8 
##  9       50 control   0.82
## 10       80 control   0.82
## # ... with 40 more rows
```
…
