Multiple Linear Regression
…
# Simulate data from an MLR model
set.seed(101)  # for reproducibility
n <- 50
sim <- tibble(
  x1 = runif(n),
  x2 = runif(n),
* y = 1 + 2*x1 - 3*x2 + rnorm(n, sd = 1)
)

# Print first few observations
print(sim)
```

```
## # A tibble: 50 x 3
##        x1     x2      y
##     <dbl>  <dbl>  <dbl>
##  1 0.372  0.0792  0.357
##  2 0.0438 0.434  -0.488
##  3 0.710  0.680   0.958
##  4 0.658  0.734  -1.28 
##  5 0.250  0.453   0.891
##  6 0.300  0.784  -1.80 
##  7 0.585  0.680   0.296
##  8 0.333  0.519   1.24 
##  9 0.622  0.691   1.35 
## 10 0.546  0.588  -0.101
## # ... with 40 more rows
```
…
